module ai-htmx-go

go 1.22.1

require (
	github.com/a-h/templ v0.2.646
	github.com/go-chi/chi/v5 v5.0.12
	github.com/joho/godotenv v1.5.1
	github.com/nedpals/supabase-go v0.4.0
	github.com/replicate/replicate-go v0.18.1
	github.com/stripe/stripe-go/v76 v76.25.0
)

require golang.org/x/sync v0.6.0 // indirect

require (
	github.com/fatih/color v1.16.0 // indirect
	github.com/golang-migrate/migrate/v4 v4.17.0
	github.com/google/go-querystring v1.1.0 // indirect
	github.com/google/uuid v1.6.0
	github.com/gorilla/securecookie v1.1.2 // indirect
	github.com/gorilla/sessions v1.2.2
	github.com/hashicorp/errwrap v1.1.0 // indirect
	github.com/hashicorp/go-multierror v1.1.1 // indirect
	github.com/jinzhu/inflection v1.0.0 // indirect
	github.com/lib/pq v1.10.9
	github.com/mattn/go-colorable v0.1.13 // indirect
	github.com/mattn/go-isatty v0.0.20 // indirect
	github.com/nedpals/postgrest-go v0.1.3 // indirect
	github.com/stripe/stripe-go v70.15.0+incompatible
	github.com/tmthrgd/go-hex v0.0.0-20190904060850-447a3041c3bc // indirect
	github.com/uptrace/bun v1.2.1
	github.com/uptrace/bun/dialect/pgdialect v1.2.1
	github.com/uptrace/bun/extra/bundebug v1.2.1
	github.com/vmihailenco/msgpack/v5 v5.4.1 // indirect
	github.com/vmihailenco/tagparser/v2 v2.0.0 // indirect
	go.uber.org/atomic v1.10.0 // indirect
	golang.org/x/sys v0.18.0 // indirect
)
